Fit Data Analysis
…
table(fit_data$weight_record[fit_data$Id.x ==8877689391])

## 
## not_Weighted     Weighted 
##            7           24

# Add aggregate "TotalSteps" data by Id

step_data <- fit_data %>%
  group_by(Id.x) %>%
  summarise(steps=sum(TotalSteps))
step_data

## # A tibble: 33 x 2
##          Id.x  steps
##         <dbl>  <dbl>
##  1 1503960366 375619
##  2 1624580081 178061
##  3 1644430081 218489
##  4 1844505072  79982
##  5 1927972279  28400
##  6 2022484408 352490
##  7 2026352035 172573
##  8 2320127002 146223
##  9 2347167796 171354
## 10 2873212765 234229
## # ... with 23 more rows

# Add aggregate "Calories" data by Id

calory_data <- fit_data %>%
  group_by(Id.x) %>%
  summarise(total_calories=sum(Calories))
calory_data

## # A tibble: 33 x 2
##          Id.x total_calories
##         <dbl>          <dbl>
##  1 1503960366          56309
##  2 1624580081          45984
##  3 1644430081          84339
##  4 1844505072          48778
##  5 1927972279          67357
##  6 2022484408          77809
##  7 2026352035          47760
##  8 2320127002          53449
##  9 2347167796          36782
## 10 2873212765          59426
## # ... with 23 more rows
…
